Introduction and usage • rstanBF
…
#>    source `theta[1]` `theta[2]` `theta[3]` `theta[4]` `theta[5]`
#>     <int>      <dbl>      <dbl>      <dbl>      <dbl>      <dbl>
#>  1      1     0.0983      0.177     0.345      0.220      0.160 
#>  2      2     0.268       0.162     0.161      0.144      0.265 
#>  3      3     0.217       0.430     0.0849     0.0818     0.187 
#>  4      4     0.191       0.245     0.205      0.239      0.121 
#>  5      5     0.139       0.268     0.361      0.114      0.118 
#>  6      6     0.292       0.186     0.114      0.263      0.145 
#>  7      7     0.237       0.189     0.242      0.144      0.189 
#>  8      8     0.142       0.104     0.173      0.368      0.213 
#>  9      9     0.174       0.309     0.116      0.131      0.270 
#> 10     10     0.321       0.216     0.141      0.261      0.0614
#> 
#> $df_pop
#> # A tibble: 1,000 x 6
#>    source   `x[1]`   `x[2]`  `x[3]`    `x[4]`       `x[5]`
#>     <int>    <dbl>    <dbl>   <dbl>     <dbl>        <dbl>
#>  1      1 6.18e- 5 0.647    0.353   0.000599  0.0000000424
#>  2      1 1.18e- 1 0.283    0.536   0.00247   0.0609      
#>  3      1 1.60e- 2 0.00869  0.271   0.691     0.0135      
#>  4      1 3.33e- 3 0.101    0.804   0.0770    0.0138      
#>  5      1 8.85e- 1 0.00749  0.00144 0.103     0.00287     
#>  6      1 2.68e-12 0.00144  0.367   0.281     0.351       
#>  7      1 1.26e- 9 0.119    0.731   0.0000486 0.150       
#>  8      1 4.03e- 1 0.000178 0.535   0.0168    0.0450      
#>  9      1 2.90e- 4 0.587    0.00140 0.364     0.0470      
#> 10      1 4.70e- 2 0.323    0.00963 0.620     0.000562    
#> # … with 990 more rows
…
